<svg xmlns="http://www.w3.org/2000/svg" width="37.797" height="39.198" viewBox="0 0 37.797 39.198">
  <g id="Key_Icon_1" data-name="Key Icon 1" transform="translate(-8.453 -6.799)">
    <g id="Grupo_337" data-name="Grupo 337" transform="translate(8.453 6.799)">
      <path id="Trazado_5061" data-name="Trazado 5061" d="M40.3,18.2A4.2,4.2,0,0,0,36.1,14h-.7a.7.7,0,0,1-.7-.7v-.364A13.131,13.131,0,0,0,21.4,0,13.131,13.131,0,0,0,8.1,12.932V13.3a.7.7,0,0,1-.7.7H6.7a4.2,4.2,0,0,0-4.2,4.2v5.6a4.2,4.2,0,0,0,4.2,4.2H9.5a2.8,2.8,0,0,0,2.8-2.8V12.932A8.931,8.931,0,0,1,21.4,4.2a8.931,8.931,0,0,1,9.1,8.735V29.395a3.528,3.528,0,0,1-2.184,3.248.7.7,0,0,1-.812-.224,4.171,4.171,0,0,0-3.3-1.624H20a4.2,4.2,0,1,0,0,8.4h4.2a4.227,4.227,0,0,0,3.5-1.876.7.7,0,0,1,.476-.308A7.727,7.727,0,0,0,34.7,29.395v-.7a.7.7,0,0,1,.7-.7h.7a4.2,4.2,0,0,0,4.2-4.2Z" transform="translate(-2.5 0.004)" fill="#fff"/>
    </g>
  </g>
</svg>
